%YAML 1.1
%TAG !u! tag:unity3d.com,2011:
--- !u!1 &4631252150661552774
GameObject:
  m_ObjectHideFlags: 0
  m_CorrespondingSourceObject: {fileID: 0}
  m_PrefabInstance: {fileID: 0}
  m_PrefabAsset: {fileID: 0}
  serializedVersion: 6
  m_Component:
  - component: {fileID: 5524696708973924315}
  - component: {fileID: 5952241995174189681}
  m_Layer: 0
  m_Name: Spawner
  m_TagString: Untagged
  m_Icon: {fileID: 0}
  m_NavMeshLayer: 0
  m_StaticEditorFlags: 0
  m_IsActive: 1
--- !u!4 &5524696708973924315
Transform:
  m_ObjectHideFlags: 0
  m_CorrespondingSourceObject: {fileID: 0}
  m_PrefabInstance: {fileID: 0}
  m_PrefabAsset: {fileID: 0}
  m_GameObject: {fileID: 4631252150661552774}
  m_LocalRotation: {x: 0, y: 0, z: 0, w: 1}
  m_LocalPosition: {x: 0, y: 0, z: 0}
  m_LocalScale: {x: 1, y: 1, z: 1}
  m_Children: []
  m_Father: {fileID: 0}
  m_RootOrder: 0
  m_LocalEulerAnglesHint: {x: 0, y: 0, z: 0}
--- !u!114 &5952241995174189681
MonoBehaviour:
  m_ObjectHideFlags: 0
  m_CorrespondingSourceObject: {fileID: 0}
  m_PrefabInstance: {fileID: 0}
  m_PrefabAsset: {fileID: 0}
  m_GameObject: {fileID: 4631252150661552774}
  m_Enabled: 1
  m_EditorHideFlags: 0
  m_Script: {fileID: 11500000, guid: 709c9d070c7478f4d8c6525c4b87a413, type: 3}
  m_Name: 
  m_EditorClassIdentifier: 
  Difficulty: 0
  prefabList:
  - {fileID: 6085140905863044618, guid: 1cefeab5daeb80444a6c2290f7cc4f3b, type: 3}
  - {fileID: 6085140905863044618, guid: 03e5d7b4f8559d34da1804d6356e8c41, type: 3}
  - {fileID: 6085140905863044618, guid: cb47c9238d72e544baf2a52a3856efea, type: 3}
  - {fileID: 8381344762516027476, guid: 1a725bd608cbf4548bdea4eab41b2a58, type: 3}
  - {fileID: 1962799227080132469, guid: 809783b532b111a41ab0f59d0a13076a, type: 3}
